RStudio Trainer Program
…
4 Many Simple Models

gap_nest <- gapminder %>% 
  select(-continent) %>% 
  group_by(country) %>% 
  nest()

## Hello model
(gap_many_tbl <- gap_nest %>% 
  mutate(model = map(data, ~lm(lifeExp ~ year, data=.))) %>% 
  mutate(model_glance = map(model, broom::glance),
         rsquare = map_dbl(model_glance, ~.$r.squared)) %>% 
  arrange(rsquare))

# A tibble: 142 x 5
# Groups:   country [142]
   country                    data model  model_glance      rsquare
   <fct>            <list<df[,4]>> <list> <list>              <dbl>
 1 Rwanda                 [12 x 4] <lm>   <tibble [1 x 11]>  0.0172
 2 Botswana               [12 x 4] <lm>   <tibble [1 x 11]>  0.0340
 3 Zimbabwe               [12 x 4] <lm>   <tibble [1 x 11]>  0.0562
 4 Zambia                 [12 x 4] <lm>   <tibble [1 x 11]>  0.0598
 5 Swaziland              [12 x 4] <lm>   <tibble [1 x 11]>  0.0682
 6 Lesotho                [12 x 4] <lm>   <tibble [1 x 11]>  0.0849
 7 Cote d'Ivoire          [12 x 4] <lm>   <tibble [1 x 11]>  0.283 
 8 South Africa           [12 x 4] <lm>   <tibble [1 x 11]>  0.312 
 9 Uganda                 [12 x 4] <lm>   <tibble [1 x 11]>  0.342 
10 Congo, Dem. Rep.       [12 x 4] <lm>   <tibble [1 x 11]>  0.348 
# ... with 132 more rows
…
